1_sum1b/build/sum1b_tb.vcd
$date
	Wed Aug 28 19:11:00 2024
$end
$version
	Icarus Verilog
$end
$timescale
	1ns
$end
$scope module sum1b_tb $end
$scope module uut $end
$var wire 1 ! A $end
$var wire 1 " B $end
$var wire 1 # Ci $end
$var wire 1 $ Cout $end
$var wire 1 % S $end
$var wire 1 & a_ab $end
$var wire 1 ' cout_t $end
$var wire 1 ( x_ab $end
$upscope $end
$upscope $end
$enddefinitions $end
$comment Show the parameter values. $end
$dumpall
$end
#0
$dumpvars
0(
0'
0&
0%
0$
0#
0"
0!
$end
#20
1%
1#
#40
1(
0#
1"
#60
1$
0%
1'
1#
#80
0$
1%
0'
0#
0"
1!
#100
1$
0%
1'
1#
#120
0'
1&
0(
0#
1"
#140
1%
1#
