4_Restador/build/restador_tb.vcd
$date
	Wed Sep 11 22:07:26 2024
$end
$version
	Icarus Verilog
$end
$timescale
	1ps
$end
$scope module testbench_restador_4bit $end
$scope module uut $end
$var wire 4 ! A [3:0] $end
$var wire 4 " B [3:0] $end
$var wire 1 # Sel $end
$var wire 1 $ b0 $end
$var wire 1 % b1 $end
$var wire 1 & b2 $end
$var wire 1 ' b3 $end
$var wire 4 ( salida [3:0] $end
$var wire 1 ) Co $end
$scope module s0 $end
$var wire 4 * A [3:0] $end
$var wire 4 + B [3:0] $end
$var wire 1 # CI $end
$var wire 1 , c3 $end
$var wire 1 - c2 $end
$var wire 1 . c1 $end
$var wire 4 / Sum [3:0] $end
$var wire 1 ) Cout $end
$scope module s0 $end
$var wire 1 0 A $end
$var wire 1 1 B $end
$var wire 1 # Ci $end
$var wire 1 2 Sum $end
$var wire 1 . Cout $end
$var reg 2 3 result [1:0] $end
$upscope $end
$scope module s1 $end
$var wire 1 4 A $end
$var wire 1 5 B $end
$var wire 1 . Ci $end
$var wire 1 6 Sum $end
$var wire 1 - Cout $end
$var reg 2 7 result [1:0] $end
$upscope $end
$scope module s2 $end
$var wire 1 8 A $end
$var wire 1 9 B $end
$var wire 1 - Ci $end
$var wire 1 : Sum $end
$var wire 1 , Cout $end
$var reg 2 ; result [1:0] $end
$upscope $end
$scope module s3 $end
$var wire 1 < A $end
$var wire 1 = B $end
$var wire 1 , Ci $end
$var wire 1 > Sum $end
$var wire 1 ) Cout $end
$var reg 2 ? result [1:0] $end
$upscope $end
$upscope $end
$upscope $end
$upscope $end
$enddefinitions $end
$comment Show the parameter values. $end
$dumpall
$end
#0
$dumpvars
b10 ?
0>
1=
0<
b10 ;
0:
19
08
b10 7
06
15
04
b11 3
12
11
10
b1 /
1.
1-
1,
b1111 +
b1 *
1)
b1 (
1'
1&
1%
1$
1#
b0 "
b1 !
$end
#5000
b0 (
b0 /
02
b10 3
01
b1110 +
0$
b1 "
#10000
1>
0)
b1 ?
1:
0,
b1 ;
12
b1111 (
b1111 /
16
0-
b11 3
b1 7
11
05
1$
b1101 +
0%
b10 "
#15000
b1110 (
b1110 /
02
b10 3
01
b1100 +
0$
b11 "
#20000
12
06
1-
b1101 (
b1101 /
1:
b11 3
b10 7
b1 ;
11
15
09
1$
1%
b1011 +
0&
b100 "
#25000
b1100 (
b1100 /
02
b10 3
01
b1010 +
0$
b101 "
#30000
0:
b0 ;
12
b1011 (
b1011 /
16
0-
b11 3
b1 7
11
05
1$
b1001 +
0%
b110 "
#35000
b1010 (
b1010 /
02
b10 3
01
b1000 +
0$
b111 "
#40000
1,
12
06
1-
0:
b1001 (
b1001 /
1>
b11 3
b10 7
b10 ;
b1 ?
11
15
19
0=
1$
1%
1&
b111 +
0'
b1000 "
#45000
b1000 (
b1000 /
02
b10 3
01
b110 +
0$
b1001 "
#50000
0>
b0 ?
1:
0,
b1 ;
12
b111 (
b111 /
16
0-
b11 3
b1 7
11
05
1$
b101 +
0%
b1010 "
#55000
b110 (
b110 /
02
b10 3
01
b100 +
0$
b1011 "
#60000
12
06
1-
b101 (
b101 /
1:
b11 3
b10 7
b1 ;
11
15
09
1$
1%
b11 +
0&
b1100 "
#65000
b100 (
b100 /
02
b10 3
01
b10 +
0$
b1101 "
#70000
0:
b0 ;
12
b11 (
b11 /
16
0-
b11 3
b1 7
11
05
1$
b1 +
0%
b1110 "
#75000
b10 (
b10 /
02
b10 3
01
b0 +
0$
b1111 "
