2_sum4b/build/sum4b_tb.vcd
$date
	Wed Aug 28 19:47:16 2024
$end
$version
	Icarus Verilog
$end
$timescale
	1ns
$end
$scope module sum4b_tb $end
$scope module uut $end
$var wire 4 ! A [3:0] $end
$var wire 4 " B [3:0] $end
$var wire 1 # c3 $end
$var wire 1 $ c2 $end
$var wire 1 % c1 $end
$var wire 4 & Sum [3:0] $end
$var wire 1 ' Cout $end
$scope module s0 $end
$var wire 1 ( A $end
$var wire 1 ) B $end
$var wire 1 * Ci $end
$var wire 1 + Sum $end
$var wire 1 % Cout $end
$var reg 2 , result [1:0] $end
$upscope $end
$scope module s1 $end
$var wire 1 - A $end
$var wire 1 . B $end
$var wire 1 % Ci $end
$var wire 1 / Sum $end
$var wire 1 $ Cout $end
$var reg 2 0 result [1:0] $end
$upscope $end
$scope module s2 $end
$var wire 1 1 A $end
$var wire 1 2 B $end
$var wire 1 $ Ci $end
$var wire 1 3 Sum $end
$var wire 1 # Cout $end
$var reg 2 4 result [1:0] $end
$upscope $end
$scope module s3 $end
$var wire 1 5 A $end
$var wire 1 6 B $end
$var wire 1 # Ci $end
$var wire 1 7 Sum $end
$var wire 1 ' Cout $end
$var reg 2 8 result [1:0] $end
$upscope $end
$upscope $end
$upscope $end
$enddefinitions $end
$comment Show the parameter values. $end
$dumpall
$end
#0
$dumpvars
b0 8
07
06
05
b0 4
03
02
01
b0 0
0/
0.
0-
b1 ,
1+
0*
0)
1(
0'
b1 &
0%
0$
0#
b0 "
b1 !
$end
#5
1/
b1 0
b10 &
0+
1%
b10 ,
1)
b1 "
#10
03
b0 4
1+
0%
b11 &
1/
0$
b1 ,
b1 0
0)
1.
b10 "
#15
13
b1 4
0/
1$
b10 0
b100 &
0+
1%
b10 ,
1)
b11 "
#20
07
b0 8
1+
0%
0/
0$
b101 &
13
0#
b1 ,
b0 0
b1 4
0)
0.
12
b100 "
#25
1/
b1 0
b110 &
0+
1%
b10 ,
1)
b101 "
#30
07
b0 8
13
0#
b1 4
1+
0%
b111 &
1/
0$
b1 ,
b1 0
0)
1.
b110 "
#35
17
b1 8
03
1#
b10 4
0/
1$
b10 0
b1000 &
0+
1%
b10 ,
1)
b111 "
#40
1+
0%
0/
0$
03
0#
b1001 &
17
0'
b1 ,
b0 0
b0 4
b1 8
0)
0.
02
16
b1000 "
#45
1/
b1 0
b1010 &
0+
1%
b10 ,
1)
b1001 "
#50
03
b0 4
1+
0%
b1011 &
1/
0$
b1 ,
b1 0
0)
1.
b1010 "
#55
13
b1 4
0/
1$
b10 0
b1100 &
0+
1%
b10 ,
1)
b1011 "
#60
17
0'
b1 8
1+
0%
0/
0$
b1101 &
13
0#
b1 ,
b0 0
b1 4
0)
0.
12
b1100 "
#65
1/
b1 0
b1110 &
0+
1%
b10 ,
1)
b1101 "
#70
17
0'
b1 8
13
0#
b1 4
1+
0%
b1111 &
1/
0$
b1 ,
b1 0
0)
1.
b1110 "
#75
07
1'
b10 8
03
1#
b10 4
0/
1$
b10 0
b0 &
0+
1%
b10 ,
1)
b1111 "
